<svg width="78" height="78" viewBox="0 0 78 78" fill="none" xmlns="http://www.w3.org/2000/svg">
<path d="M38.6136 0C17.3375 0 0 17.3375 0 38.6136C0 59.8898 17.3375 77.2273 38.6136 77.2273C59.8898 77.2273 77.2273 59.8898 77.2273 38.6136C77.2273 17.3375 59.8898 0 38.6136 0ZM35.7176 23.1682C35.7176 21.585 37.0305 20.2722 38.6136 20.2722C40.1968 20.2722 41.5097 21.585 41.5097 23.1682V42.475C41.5097 44.0582 40.1968 45.371 38.6136 45.371C37.0305 45.371 35.7176 44.0582 35.7176 42.475V23.1682ZM42.1661 55.5264C41.973 56.0284 41.7027 56.4145 41.3552 56.8007C40.9691 57.1482 40.5443 57.4185 40.081 57.6116C39.6176 57.8046 39.1156 57.9205 38.6136 57.9205C38.1117 57.9205 37.6097 57.8046 37.1463 57.6116C36.683 57.4185 36.2582 57.1482 35.8721 56.8007C35.5246 56.4145 35.2543 56.0284 35.0612 55.5264C34.8681 55.0631 34.7523 54.5611 34.7523 54.0591C34.7523 53.5571 34.8681 53.0552 35.0612 52.5918C35.2543 52.1284 35.5246 51.7037 35.8721 51.3175C36.2582 50.97 36.683 50.6997 37.1463 50.5067C38.0731 50.1205 39.1542 50.1205 40.081 50.5067C40.5443 50.6997 40.9691 50.97 41.3552 51.3175C41.7027 51.7037 41.973 52.1284 42.1661 52.5918C42.3592 53.0552 42.475 53.5571 42.475 54.0591C42.475 54.5611 42.3592 55.0631 42.1661 55.5264Z" fill="#000"/>
</svg>
